…
``` r
(tree_age_barrier <- vancouver_trees %>%
   mutate(across(height_range_id, as.character)) %>% 
  separate(date_planted, into = c("year" , "month", "day"), "-", convert = T) %>%  
   arrange(desc(year)) %>%
   mutate(age= first(year)-year+1) %>% 
   select(tree_id, diameter, age, root_barrier,   height_range_id))
```

    ## # A tibble: 146,611 x 5
    ##    tree_id diameter   age root_barrier height_range_id
    ##      <dbl>    <dbl> <dbl> <chr>        <chr>          
    ##  1  162563        3     1 N            1              
    ##  2  163039        3     1 Y            1              
    ##  3  163211        3     1 Y            1              
    ##  4  245629        3     1 N            1              
    ##  5  245770        3     1 N            1              
    ##  6  245882        3     1 N            1              
    ##  7  245958        3     1 N            1              
    ##  8  246038        3     1 N            1              
    ##  9  246531        3     1 N            1              
    ## 10  248345        3     1 Y            1              
    ## # ... with 146,601 more rows
…
    ## Warning in `==.default`(height_range_id, c("4", "5", "6")): longer object length
    ## is not a multiple of shorter object length

    ## Warning in is.na(e1) | is.na(e2): longer object length is not a multiple of
    ## shorter object length

    ## Warning in `==.default`(height_range_id, c("7", "8", "9", "10")): longer object
    ## length is not a multiple of shorter object length

    ## Warning in is.na(e1) | is.na(e2): longer object length is not a multiple of
    ## shorter object length

    ## # A tibble: 146,611 x 5
    ##    tree_id diameter   age root_barrier height_range_id
    ##      <dbl>    <dbl> <dbl> <chr>        <fct>          
    ##  1  162563        3     1 N            Mini           
    ##  2  163039        3     1 Y            <NA>           
    ##  3  163211        3     1 Y            <NA>           
    ##  4  245629        3     1 N            Mini           
    ##  5  245770        3     1 N            <NA>           
    ##  6  245882        3     1 N            <NA>           
    ##  7  245958        3     1 N            Mini           
    ##  8  246038        3     1 N            <NA>           
    ##  9  246531        3     1 N            <NA>           
    ## 10  248345        3     1 Y            Mini           
    ## # ... with 146,601 more rows
…
