…
My dataset contains date data, which can be filtered out. I am
interested to see if the 2016 Paris climate agreement had an effect on
the number of trees planted in Vancouver. To investigate this, it is
helpful to observe before 2017 and after 2017.

``` r
# filtering dates with dates later than 2017.

(planted_after_2017 <- vancouver_trees %>% 
  filter(date_planted > "2017-01-01") %>%
    arrange(date_planted))
```

    ## # A tibble: 2,925 x 20
    ##    tree_id civic_number std_st~1 genus~2 speci~3 culti~4 commo~5 assig~6 root_~7
    ##      <dbl>        <dbl> <chr>    <chr>   <chr>   <chr>   <chr>   <chr>   <chr>  
    ##  1  232911         1392 W 58TH ~ PRUNUS  CERASI~ NIGRA   NIGHT ~ N       N      
    ##  2  255544         6605 DAWSON ~ PRUNUS  CERASI~ NIGRA   NIGHT ~ N       N      
    ##  3  255551         6892 RALEIGH~ PRUNUS  CERASI~ NIGRA   NIGHT ~ N       N      
    ##  4  252378          639 W 14TH ~ PRUNUS  CERASI~ NIGRA   NIGHT ~ N       N      
    ##  5  255212         2055 W 16TH ~ PRUNUS  CERASI~ NIGRA   NIGHT ~ N       N      
    ##  6  255922         3223 LARCH ST PRUNUS  CERASI~ NIGRA   NIGHT ~ N       N      
    ##  7  252368         2775 SOPHIA ~ PRUNUS  CERASI~ NIGRA   NIGHT ~ N       N      
    ##  8  139127          688 ABBOTT ~ CORNUS  KOUSA   <NA>    JAPANE~ N       N      
    ##  9  139130          688 ABBOTT ~ CORNUS  KOUSA   <NA>    JAPANE~ N       N      
    ## 10  139135          688 ABBOTT ~ CORNUS  KOUSA   <NA>    JAPANE~ N       N      
    ## # ... with 2,915 more rows, 11 more variables: plant_area <chr>,
    ## #   on_street_block <dbl>, on_street <chr>, neighbourhood_name <chr>,
    ## #   street_side_name <chr>, height_range_id <dbl>, diameter <dbl>, curb <chr>,
    ## #   date_planted <date>, longitude <dbl>, latitude <dbl>, and abbreviated
    ## #   variable names 1: std_street, 2: genus_name, 3: species_name,
    ## #   4: cultivar_name, 5: common_name, 6: assigned, 7: root_barrier

``` r
# filtering dates with dates earlier than 2017.

(planted_before_2017 <- vancouver_trees %>% 
  filter(date_planted < "2017-01-01") %>%
    arrange(date_planted))
```

    ## # A tibble: 67,138 x 20
    ##    tree_id civic_number std_st~1 genus~2 speci~3 culti~4 commo~5 assig~6 root_~7
    ##      <dbl>        <dbl> <chr>    <chr>   <chr>   <chr>   <chr>   <chr>   <chr>  
    ##  1  122127          412 E 46TH ~ TILIA   CORDATA <NA>    LITTLE~ N       N      
    ##  2  122130          434 E 46TH ~ TILIA   CORDATA <NA>    LITTLE~ N       N      
    ##  3  122593         2211 W 32ND ~ TILIA   CORDATA <NA>    LITTLE~ N       N      
    ##  4  122595         2221 W 32ND ~ TILIA   CORDATA <NA>    LITTLE~ N       N      
    ##  5  122591         2185 W 32ND ~ TILIA   CORDATA <NA>    LITTLE~ N       N      
    ##  6  122602         2244 W 32ND ~ TILIA   CORDATA <NA>    LITTLE~ N       N      
    ##  7  122603         2232 W 32ND ~ TILIA   CORDATA <NA>    LITTLE~ N       N      
    ##  8  122610         2182 W 32ND ~ TILIA   CORDATA <NA>    LITTLE~ N       N      
    ##  9  122611         2176 W 32ND ~ TILIA   CORDATA <NA>    LITTLE~ N       N      
    ## 10  122615         4825 YEW ST   TILIA   CORDATA <NA>    LITTLE~ N       N      
    ## # ... with 67,128 more rows, 11 more variables: plant_area <chr>,
    ## #   on_street_block <dbl>, on_street <chr>, neighbourhood_name <chr>,
    ## #   street_side_name <chr>, height_range_id <dbl>, diameter <dbl>, curb <chr>,
    ## #   date_planted <date>, longitude <dbl>, latitude <dbl>, and abbreviated
    ## #   variable names 1: std_street, 2: genus_name, 3: species_name,
    ## #   4: cultivar_name, 5: common_name, 6: assigned, 7: root_barrier
…
One potential interest could be finding the distribution of trees
planted in Vancouver throughout the area span, hence, it is helpful to
create a tibble containing a subset of my data containing the name of
the plants, planting date, latitude and longitude.

``` r
#making a subtibble with desired variables

(tree_location_date <- vancouver_trees %>% 
  select(genus_name, common_name, date_planted, longitude, latitude))
```

    ## # A tibble: 146,611 x 5
    ##    genus_name common_name           date_planted longitude latitude
    ##    <chr>      <chr>                 <date>           <dbl>    <dbl>
    ##  1 ULMUS      BRANDON ELM           1999-01-13       -123.     49.2
    ##  2 ZELKOVA    JAPANESE ZELKOVA      1996-05-31       -123.     49.2
    ##  3 STYRAX     JAPANESE SNOWBELL     1993-11-22       -123.     49.2
    ##  4 FRAXINUS   AUTUMN APPLAUSE ASH   1996-04-29       -123.     49.2
    ##  5 ACER       HEDGE MAPLE           1993-12-17       -123.     49.2
    ##  6 PYRUS      CHANTICLEER PEAR      NA               -123.     49.2
    ##  7 ACER       COLUMNAR NORWAY MAPLE 1993-12-16       -123.     49.2
    ##  8 ACER       COLUMNAR NORWAY MAPLE 1993-12-16       -123.     49.2
    ##  9 ACER       COLUMNAR NORWAY MAPLE 1993-12-16       -123.     49.2
    ## 10 FRAXINUS   AUTUMN APPLAUSE ASH   1993-12-03       -123.     49.2
    ## # ... with 146,601 more rows
…
(year_month_day_season <- vancouver_trees %>%
  separate(date_planted, into = c("year" , "month", "day"), "-", convert = T) %>% 
  mutate(season = case_when(
      month %in% c(10:12) ~ "Fall",
      month %in% c(1:3)  ~ "Winter",
      month %in% c(4:6)  ~ "Spring",
      month %in% c(7:9) ~ "Summer")) %>% 
   arrange(desc(year)) %>% 
   mutate(age= first(year)-year+1))
```

    ## # A tibble: 146,611 x 24
    ##    tree_id civic_number std_st~1 genus~2 speci~3 culti~4 commo~5 assig~6 root_~7
    ##      <dbl>        <dbl> <chr>    <chr>   <chr>   <chr>   <chr>   <chr>   <chr>  
    ##  1  162563         1801 CORNWAL~ QUERCUS PALUST~ <NA>    PIN OAK Y       N      
    ##  2  163039         1551 BURRARD~ QUERCUS PALUST~ <NA>    PIN OAK Y       Y      
    ##  3  163211         1551 BURRARD~ QUERCUS PALUST~ <NA>    PIN OAK Y       Y      
    ##  4  245629         5234 CLAREND~ PARROT~ PERSICA VANESSA VANESS~ N       N      
    ##  5  245770          999 PACIFIC~ ACER    PLATAN~ COLUMN~ COLUMN~ N       N      
    ##  6  245882         2498 E 40TH ~ STYRAX  JAPONI~ SNOWCO~ SNOWCO~ N       N      
    ##  7  245958         2418 E 33RD ~ ACER    RUBRUM  BOWHALL BOWHAL~ N       N      
    ##  8  246038         2845 CAMBRID~ ACER    RUBRUM  BRANDY~ BRANDY~ N       N      
    ##  9  246531         7410 ANGUS D~ CERCID~ JAPONI~ <NA>    KATSUR~ N       N      
    ## 10  248345         1550 BURRARD~ FAGUS   SYLVAT~ DAWYCK~ DAWYCK~ N       Y      
    ## # ... with 146,601 more rows, 15 more variables: plant_area <chr>,
    ## #   on_street_block <dbl>, on_street <chr>, neighbourhood_name <chr>,
    ## #   street_side_name <chr>, height_range_id <dbl>, diameter <dbl>, curb <chr>,
    ## #   year <int>, month <int>, day <int>, longitude <dbl>, latitude <dbl>,
    ## #   season <chr>, age <dbl>, and abbreviated variable names 1: std_street,
    ## #   2: genus_name, 3: species_name, 4: cultivar_name, 5: common_name,
    ## #   6: assigned, 7: root_barrier
…
(trees_commName <- year_month_day_season %>%
    group_by(common_name, root_barrier) %>%
  summarise(mean_diameter = mean(diameter, na.rm = TRUE), sd_diameter = sd(diameter, na.rm = TRUE), average_age = mean(age, na.rm=TRUE), tree_count=n()) %>% 
  mutate(freq_trees_with_vs_without_root_barrier_per_genus = (tree_count / sum(tree_count))) %>% 
   mutate(percentage_trees_with_vs_without_root_barrier_per_genus = (100*tree_count / sum(tree_count))))
```

    ## `summarise()` has grouped output by 'common_name'. You can override using the
    ## `.groups` argument.

    ## # A tibble: 844 x 8
    ## # Groups:   common_name [634]
    ##    common_name           root_~1 mean_~2 sd_di~3 avera~4 tree_~5 freq_~6 perce~7
    ##    <chr>                 <chr>     <dbl>   <dbl>   <dbl>   <int>   <dbl>   <dbl>
    ##  1 ACCOLADE CHERRY       N         20.8    8.52     21.3      60  1       100   
    ##  2 AKEBONO FLOWERING CH~ N          8.14   8.35     14.9    2066  0.867    86.7 
    ##  3 AKEBONO FLOWERING CH~ Y          5.28   3.40     13.0     318  0.133    13.3 
    ##  4 ALDER SPECIES         N         16.2    8.44    NaN        16  1       100   
    ##  5 ALDERLEAFED MOUNTAIN~ N          4.64   2.07     18.8     156  0.907    90.7 
    ##  6 ALDERLEAFED MOUNTAIN~ Y          4.92   4.14     17.6      16  0.0930    9.30
    ##  7 ALIA'S MAGNOLIA       N          5.33   0.289    20         3  1       100   
    ##  8 ALLEGHENY SERVICEBER~ N          3.5    0.707    16         2  0.333    33.3 
    ##  9 ALLEGHENY SERVICEBER~ Y          2.62   1.61     15         4  0.667    66.7 
    ## 10 ALLGOLD EUROPEAN ASH  N          3.81   1.79     17.2      78  1       100   
    ## # ... with 834 more rows, and abbreviated variable names 1: root_barrier,
    ## #   2: mean_diameter, 3: sd_diameter, 4: average_age, 5: tree_count,
    ## #   6: freq_trees_with_vs_without_root_barrier_per_genus,
    ## #   7: percentage_trees_with_vs_without_root_barrier_per_genus
…
**Summarizing:**  
Compute the number of observations for at least one of your categorical
variables. Do not use the function table()!

To find the year by year trend of tree planting in Vancouver spatially,
it would be helpful to know population of trees per neighborhood first.
Here I have done that.

``` r
(vancouver_trees %>% 
  count(neighbourhood_name))
```

    ## # A tibble: 22 x 2
    ##    neighbourhood_name           n
    ##    <chr>                    <int>
    ##  1 ARBUTUS-RIDGE             5169
    ##  2 DOWNTOWN                  5159
    ##  3 DUNBAR-SOUTHLANDS         9415
    ##  4 FAIRVIEW                  4002
    ##  5 GRANDVIEW-WOODLAND        6703
    ##  6 HASTINGS-SUNRISE         10547
    ##  7 KENSINGTON-CEDAR COTTAGE 11042
    ##  8 KERRISDALE                6936
    ##  9 KILLARNEY                 6148
    ## 10 KITSILANO                 8115
    ## # ... with 12 more rows
…
